{
    "app-id" : "com.gitlab.cunidev.Workflow",
    "runtime" : "org.gnome.Platform",
    "runtime-version" : "3.38",
    "sdk" : "org.gnome.Sdk",
    "command" : "workflow",
    "finish-args" : [
        "--share=network",
        "--share=ipc",
        "--socket=fallback-x11",
        "--socket=wayland",
        "--filesystem=~/.config/activitywatch"
    ],
    "modules" : [
        {
            "name" : "Workflow",
            "buildsystem" : "meson",
            "sources" : [
                {
                    "type" : "git",
                    "url" : "https://gitlab.com/cunidev/workflow.git",
                    "tag": "0.1.2",
                    "commit": "e71062829aa21cae66052f15f75e9ce6abe714ae"
                }
            ]
        }
    ]
}
